Hardware/NPU/TestBench/ctrl_full_vcs_fsdb.log
-- using compiler-generated Build/npu_program.hex --
cp ../../../Build/npu_program.hex npu_program.hex
==== NPU_ctrl_top_tb via VCS + FSDB ====
vcs -sverilog -full64 -timescale=1ns/1ps -debug_access+all +incdir+.. +incdir+../Control +incdir+../Buffer +incdir+../Memory +incdir+../PE_Array +incdir+../PE_Array/GIN +incdir+../PE_Array/GON +incdir+../PPU \
       ../NPU_ctrl_top.sv ../Control/Decoder.sv ../Control/DMA_ctrl.sv ../Control/DummyExec.sv ../Memory/SRAM.sv ../Memory/ICache.sv NPU_ctrl_top_tb.sv \
       -top NPU_ctrl_top_tb -o simv_ctrl_full_fsdb
*** Using c compiler gcc instead of cc ...
                         Chronologic VCS (TM)
         Version V-2023.12_Full64 -- Sun May 31 20:09:13 2026

                    Copyright (c) 1991 - 2023 Synopsys, Inc.
   This software and the associated documentation are proprietary to Synopsys,
 Inc. This software may only be used in accordance with the terms and conditions
 of a written license agreement with Synopsys, Inc. All other use, reproduction,
   or distribution of this software is strictly prohibited.  Licensed Products
     communicate with Synopsys servers for the purpose of providing software
    updates, detecting software piracy and verifying that customers are using
    Licensed Products in conformity with the applicable License Key for such
  Licensed Products. Synopsys will use information gathered in connection with
    this process to deliver software updates and pursue software pirates and
                                   infringers.

 Inclusivity & Diversity - Visit SolvNetPlus to read the "Synopsys Statement on
            Inclusivity and Diversity" (Refer to article 000036315 at
                        https://solvnetplus.synopsys.com)

Parsing design file '../NPU_ctrl_top.sv'
Parsing included file '../define.svh'.
Back to file '../NPU_ctrl_top.sv'.
Parsing design file '../Control/Decoder.sv'
Parsing included file '../define.svh'.
Back to file '../Control/Decoder.sv'.
Parsing design file '../Control/DMA_ctrl.sv'
Parsing included file '../define.svh'.
Back to file '../Control/DMA_ctrl.sv'.
Parsing design file '../Control/DummyExec.sv'
Parsing included file '../define.svh'.
Back to file '../Control/DummyExec.sv'.
Parsing design file '../Memory/SRAM.sv'
Parsing included file '../define.svh'.
Back to file '../Memory/SRAM.sv'.
Parsing design file '../Memory/ICache.sv'
Parsing included file '../define.svh'.
Back to file '../Memory/ICache.sv'.
Parsing design file 'NPU_ctrl_top_tb.sv'
Parsing included file '../define.svh'.
Back to file 'NPU_ctrl_top_tb.sv'.
Top Level Modules:
       NPU_ctrl_top_tb
TimeScale is 1 ns / 1 ps
Starting vcs inline pass...

1 module and 0 UDP read.
recompiling module NPU_ctrl_top_tb
make[1]: Entering directory '/home/users/xxSehun/AOC/YOLOv8n-Accelerator/Hardware/NPU/TestBench/csrc'
make[1]: Leaving directory '/home/users/xxSehun/AOC/YOLOv8n-Accelerator/Hardware/NPU/TestBench/csrc'
make[1]: Entering directory '/home/users/xxSehun/AOC/YOLOv8n-Accelerator/Hardware/NPU/TestBench/csrc'
rm -f _cuarc*.so _csrc*.so pre_vcsobj_*.so share_vcsobj_*.so
if [ -x ../simv_ctrl_full_fsdb ]; then chmod a-x ../simv_ctrl_full_fsdb; fi
g++  -o ../simv_ctrl_full_fsdb      -rdynamic  -Wl,-rpath='$ORIGIN'/simv_ctrl_full_fsdb.daidir -Wl,-rpath=./simv_ctrl_full_fsdb.daidir -Wl,-rpath=/usr/cad/synopsys/vcs/2023.12/linux64/lib -L/usr/cad/synopsys/vcs/2023.12/linux64/lib  -Wl,-rpath-link=./  /usr/lib64/libnuma.so.1   objs/amcQw_d.o   _2340000_archive_1.so   SIM_l.o      rmapats_mop.o rmapats.o rmar.o rmar_nd.o  rmar_llvm_0_1.o rmar_llvm_0_0.o            -lvirsim -lerrorinf -lsnpsmalloc -lvfs    -lvcsnew -lsimprofile -luclinative /usr/cad/synopsys/vcs/2023.12/linux64/lib/vcs_tls.o   -Wl,-whole-archive  -lvcsucli    -Wl,-no-whole-archive        _vcs_pli_stub_.o   /usr/cad/synopsys/vcs/2023.12/linux64/lib/vcs_save_restore_new.o /usr/cad/synopsys/verdi/2023.12/share/PLI/VCS/LINUX64/pli.a -ldl  -lc -lm -lpthread -ldl 
../simv_ctrl_full_fsdb up to date
make[1]: Leaving directory '/home/users/xxSehun/AOC/YOLOv8n-Accelerator/Hardware/NPU/TestBench/csrc'
CPU time: .355 seconds to compile + .201 seconds to elab + .199 seconds to link
./simv_ctrl_full_fsdb +FSDB
Info: [VCS_SAVE_RESTORE_INFO] ASLR (Address Space Layout Randomization) is detected on the machine. To enable $save functionality, ASLR will be switched off and simv re-executed.
Please use '-no_save' simv switch to avoid re-execution or '-suppress=ASLR_DETECTED_INFO' to suppress this message.
Chronologic VCS simulator copyright 1991-2023
Contains Synopsys proprietary information.
Compiler version V-2023.12_Full64; Runtime version V-2023.12_Full64;  May 31 20:09 2026
*Verdi* Loading libsscore_vcs202312.so
FSDB Dumper for VCS, Release Verdi_V-2023.12, Linux x86_64/64bit, 11/15/2023
(C) 1996 - 2023 by Synopsys, Inc.
*Verdi* FSDB WARNING: The FSDB file already exists. Overwriting the FSDB file may crash the programs that are using this file.
*Verdi* : Create FSDB file 'npu_ctrl_top.fsdb'
*Verdi* : Begin traversing the scope (NPU_ctrl_top_tb), layer (0).
*Verdi* : Enable +all dumping.
*Verdi* WARNING: Var 'NPU_ctrl_top_tb.weight_bytes' will be ignored because its total element is larger than or equal to 2097152.
*Verdi* : You may set environmental parameter "FSDB_MAX_VAR_ELEM" to enable the dumping.
*Verdi* WARNING: Var 'NPU_ctrl_top_tb.dram_out_mem' will be ignored because its total element is larger than or equal to 2097152.
*Verdi* : You may set environmental parameter "FSDB_MAX_VAR_ELEM" to enable the dumping.
*Verdi* : End of traversing.
*Verdi* : Begin traversing the MDAs under scope (NPU_ctrl_top_tb), layer (0).
*Verdi* : Enable +mda and +packedmda dumping.
*Verdi* WARNING: Var 'NPU_ctrl_top_tb.weight_bytes' will be ignored because its total element is larger than or equal to 2097152.
*Verdi* : You may set environmental parameter "FSDB_MAX_VAR_ELEM" to enable the dumping.
*Verdi* WARNING: Var 'NPU_ctrl_top_tb.dram_out_mem' will be ignored because its total element is larger than or equal to 2097152.
*Verdi* : You may set environmental parameter "FSDB_MAX_VAR_ELEM" to enable the dumping.
*Verdi* : End of traversing the MDAs.
Loaded 1277680 weight bytes
== NPU_ctrl_top_tb: generated ISA control/data-exchange sim ==
Requires npu_program.hex in this simulation cwd.
Start pulsed at 105000
[DECODE pc=0] DMA_LD dram=0x00000000 sram=0x00000000 size=0x0012c000
[DMA 1][pc=0] DMA_LD DRAM_INPUT->SRAM dram=0x00000000 sram=0x00000000 size=0x0012c000
*Verdi* FSDB: For performance reasons, the Memory Size Limit has been increased to 128M.
[DECODE pc=1] DMA_LD dram=0x01000000 sram=0x00380000 size=0x000001f0
[DMA 2][pc=1] DMA_LD DRAM_WEIGHT->SRAM dram=0x01000000 sram=0x00380000 size=0x000001f0
[DECODE pc=2] CONFIG in_h=640 in_w=640 in_c=3 out_c=16 stride=2 pcfg=0x07e shift=0x0a
[DECODE pc=3] CONV in=0x00000000 wgt=0x00380000 out=0x0012c000 flags=0x00b stride=2 pad=1 kernel=3 uses_cfg(H=640 W=640 IC=3 OC=16 pcfg=0x07e shift=0x0a add_lhs=0x00 add_rhs=0x00)
[EXEC 1][pc=3] CONV out=0x0012c000 H=640 W=640 OC=16 stride=2 pad=1 kernel=3
[DECODE pc=4] DMA_LD dram=0x010001f0 sram=0x003c0000 size=0x00001280
[DMA 3][pc=4] DMA_LD DRAM_WEIGHT->SRAM dram=0x010001f0 sram=0x003c0000 size=0x00001280
[DECODE pc=5] CONFIG in_h=320 in_w=320 in_c=16 out_c=32 stride=2 pcfg=0x07f shift=0x09
[DECODE pc=6] CONV in=0x0012c000 wgt=0x003c0000 out=0x00000000 flags=0x00b stride=2 pad=1 kernel=3 uses_cfg(H=320 W=320 IC=16 OC=32 pcfg=0x07f shift=0x09 add_lhs=0x00 add_rhs=0x00)
[EXEC 2][pc=6] CONV out=0x00000000 H=320 W=320 OC=32 stride=2 pad=1 kernel=3
[DECODE pc=7] DMA_LD dram=0x01001470 sram=0x00380000 size=0x00000480
[DMA 4][pc=7] DMA_LD DRAM_WEIGHT->SRAM dram=0x01001470 sram=0x00380000 size=0x00000480
[DECODE pc=8] CONFIG in_h=160 in_w=160 in_c=32 out_c=32 stride=1 pcfg=0x07f shift=0x07
[DECODE pc=9] CONV in=0x00000000 wgt=0x00380000 out=0x000c8000 flags=0x00b stride=1 pad=0 kernel=1 uses_cfg(H=160 W=160 IC=32 OC=32 pcfg=0x07f shift=0x07 add_lhs=0x00 add_rhs=0x00)
[EXEC 3][pc=9] CONV out=0x000c8000 H=160 W=160 OC=32 stride=1 pad=0 kernel=1
[DECODE pc=10] DMA_LD dram=0x010018f0 sram=0x003c0000 size=0x00000940
[DMA 5][pc=10] DMA_LD DRAM_WEIGHT->SRAM dram=0x010018f0 sram=0x003c0000 size=0x00000940
[DECODE pc=11] CONFIG in_h=160 in_w=160 in_c=16 out_c=16 stride=1 pcfg=0x07f shift=0x08
[DECODE pc=12] CONV in=0x0012c000 wgt=0x003c0000 out=0x00000000 flags=0x00b stride=1 pad=1 kernel=3 uses_cfg(H=160 W=160 IC=16 OC=16 pcfg=0x07f shift=0x08 add_lhs=0x00 add_rhs=0x00)
[EXEC 4][pc=12] CONV out=0x00000000 H=160 W=160 OC=16 stride=1 pad=1 kernel=3
[DECODE pc=13] DMA_LD dram=0x01002230 sram=0x00380000 size=0x00000940
[DMA 6][pc=13] DMA_LD DRAM_WEIGHT->SRAM dram=0x01002230 sram=0x00380000 size=0x00000940
[DECODE pc=14] CONFIG in_h=160 in_w=160 in_c=16 out_c=16 stride=1 pcfg=0x07f shift=0x09
[DECODE pc=15] CONV in=0x00000000 wgt=0x00380000 out=0x00064000 flags=0x00b stride=1 pad=1 kernel=3 uses_cfg(H=160 W=160 IC=16 OC=16 pcfg=0x07f shift=0x09 add_lhs=0x00 add_rhs=0x00)
[EXEC 5][pc=15] CONV out=0x00064000 H=160 W=160 OC=16 stride=1 pad=1 kernel=3
[DECODE pc=16] ADDCFG lhs_shift=0x01 rhs_shift=0x00
[DECODE pc=17] CONFIG in_h=160 in_w=160 in_c=16 out_c=16 stride=1 pcfg=0x000 shift=0x00
[DECODE pc=18] ADD in=0x0012c000 wgt=0x00064000 out=0x00000000 flags=0x000 stride=1 pad=0 kernel=1 uses_cfg(H=160 W=160 IC=16 OC=16 pcfg=0x000 shift=0x00 add_lhs=0x01 add_rhs=0x00)
[EXEC 6][pc=18] ADD out=0x00000000 H=160 W=160 OC=16 stride=1 pad=0 kernel=1
[DECODE pc=19] DMA_ST dram=0x00200000 sram=0x000c8000 size=0x000c8000
[DMA 7][pc=19] DMA_ST SRAM->DRAM dram=0x00200000 sram=0x000c8000 size=0x000c8000
[CHECKPOINT] concat staging store armed sram=0x000c8000 dram=0x00200000 word=0xd0030000
*Verdi* FSDB: For performance reasons, the Memory Size Limit has been increased to 256M.
[CHECKPOINT] concat staging store matched dram=0x00200000 word=0xd0030000
[DECODE pc=20] DMA_ST dram=0x002c8000 sram=0x00000000 size=0x00064000
[DMA 8][pc=20] DMA_ST SRAM->DRAM dram=0x002c8000 sram=0x00000000 size=0x00064000
[DECODE pc=21] DMA_LD dram=0x00200000 sram=0x00190000 size=0x00064000
[DMA 9][pc=21] DMA_LD DRAM_STAGE->SRAM dram=0x00200000 sram=0x00190000 size=0x00064000
[CHECKPOINT] concat staging reload armed dram=0x00200000 sram=0x00190000
[CHECKPOINT] concat staging reload matched sram=0x00190000 word=0xd0030000
[DECODE pc=22] DMA_LD dram=0x00264000 sram=0x001f4000 size=0x00064000
[DMA 10][pc=22] DMA_LD DRAM_STAGE->SRAM dram=0x00264000 sram=0x001f4000 size=0x00064000
[DECODE pc=23] DMA_LD dram=0x002c8000 sram=0x00258000 size=0x00064000
[DMA 11][pc=23] DMA_LD DRAM_STAGE->SRAM dram=0x002c8000 sram=0x00258000 size=0x00064000
[DECODE pc=24] DMA_LD dram=0x01002b70 sram=0x003c0000 size=0x00000680
[DMA 12][pc=24] DMA_LD DRAM_WEIGHT->SRAM dram=0x01002b70 sram=0x003c0000 size=0x00000680
[DECODE pc=25] CONFIG in_h=160 in_w=160 in_c=48 out_c=32 stride=1 pcfg=0x07f shift=0x08
[DECODE pc=26] CONV in=0x00190000 wgt=0x003c0000 out=0x00000000 flags=0x00b stride=1 pad=0 kernel=1 uses_cfg(H=160 W=160 IC=48 OC=32 pcfg=0x07f shift=0x08 add_lhs=0x01 add_rhs=0x00)
[EXEC 7][pc=26] CONV out=0x00000000 H=160 W=160 OC=32 stride=1 pad=0 kernel=1
[DECODE pc=27] DMA_LD dram=0x010031f0 sram=0x00380000 size=0x00004900
[DMA 13][pc=27] DMA_LD DRAM_WEIGHT->SRAM dram=0x010031f0 sram=0x00380000 size=0x00004900
[DECODE pc=28] CONFIG in_h=160 in_w=160 in_c=32 out_c=64 stride=2 pcfg=0x04f shift=0x0a
[DECODE pc=29] CONV in=0x00000000 wgt=0x00380000 out=0x000c8000 flags=0x00b stride=2 pad=1 kernel=3 uses_cfg(H=160 W=160 IC=32 OC=64 pcfg=0x04f shift=0x0a add_lhs=0x01 add_rhs=0x00)
[EXEC 8][pc=29] CONV out=0x000c8000 H=160 W=160 OC=64 stride=2 pad=1 kernel=3
[DECODE pc=30] DMA_LD dram=0x01007af0 sram=0x003c0000 size=0x00001100
[DMA 14][pc=30] DMA_LD DRAM_WEIGHT->SRAM dram=0x01007af0 sram=0x003c0000 size=0x00001100
[DECODE pc=31] CONFIG in_h=80 in_w=80 in_c=64 out_c=64 stride=1 pcfg=0x04f shift=0x08
[DECODE pc=32] CONV in=0x000c8000 wgt=0x003c0000 out=0x00000000 flags=0x00b stride=1 pad=0 kernel=1 uses_cfg(H=80 W=80 IC=64 OC=64 pcfg=0x04f shift=0x08 add_lhs=0x01 add_rhs=0x00)
[EXEC 9][pc=32] CONV out=0x00000000 H=80 W=80 OC=64 stride=1 pad=0 kernel=1
[DECODE pc=33] DMA_LD dram=0x01008bf0 sram=0x00380000 size=0x00002480
[DMA 15][pc=33] DMA_LD DRAM_WEIGHT->SRAM dram=0x01008bf0 sram=0x00380000 size=0x00002480
[DECODE pc=34] CONFIG in_h=80 in_w=80 in_c=32 out_c=32 stride=1 pcfg=0x04f shift=0x09
[DECODE pc=35] CONV in=0x00032000 wgt=0x00380000 out=0x00064000 flags=0x00b stride=1 pad=1 kernel=3 uses_cfg(H=80 W=80 IC=32 OC=32 pcfg=0x04f shift=0x09 add_lhs=0x01 add_rhs=0x00)
[EXEC 10][pc=35] CONV out=0x00064000 H=80 W=80 OC=32 stride=1 pad=1 kernel=3
[DECODE pc=36] DMA_LD dram=0x0100b070 sram=0x003c0000 size=0x00002480
[DMA 16][pc=36] DMA_LD DRAM_WEIGHT->SRAM dram=0x0100b070 sram=0x003c0000 size=0x00002480
[DECODE pc=37] CONFIG in_h=80 in_w=80 in_c=32 out_c=32 stride=1 pcfg=0x04f shift=0x09
[DECODE pc=38] CONV in=0x00064000 wgt=0x003c0000 out=0x00096000 flags=0x00b stride=1 pad=1 kernel=3 uses_cfg(H=80 W=80 IC=32 OC=32 pcfg=0x04f shift=0x09 add_lhs=0x01 add_rhs=0x00)
[EXEC 11][pc=38] CONV out=0x00096000 H=80 W=80 OC=32 stride=1 pad=1 kernel=3
[DECODE pc=39] ADDCFG lhs_shift=0x00 rhs_shift=0x00
[DECODE pc=40] CONFIG in_h=80 in_w=80 in_c=32 out_c=32 stride=1 pcfg=0x000 shift=0x00
[DECODE pc=41] ADD in=0x00032000 wgt=0x00096000 out=0x00064000 flags=0x000 stride=1 pad=0 kernel=1 uses_cfg(H=80 W=80 IC=32 OC=32 pcfg=0x000 shift=0x00 add_lhs=0x00 add_rhs=0x00)
[EXEC 12][pc=41] ADD out=0x00064000 H=80 W=80 OC=32 stride=1 pad=0 kernel=1
*Verdi* FSDB: For performance reasons, the Memory Size Limit has been increased to 512M.
[DECODE pc=42] DMA_LD dram=0x0100d4f0 sram=0x00380000 size=0x00002480
[DMA 17][pc=42] DMA_LD DRAM_WEIGHT->SRAM dram=0x0100d4f0 sram=0x00380000 size=0x00002480
[DECODE pc=43] CONFIG in_h=80 in_w=80 in_c=32 out_c=32 stride=1 pcfg=0x04f shift=0x0a
[DECODE pc=44] CONV in=0x00064000 wgt=0x00380000 out=0x00096000 flags=0x00b stride=1 pad=1 kernel=3 uses_cfg(H=80 W=80 IC=32 OC=32 pcfg=0x04f shift=0x0a add_lhs=0x00 add_rhs=0x00)
[EXEC 13][pc=44] CONV out=0x00096000 H=80 W=80 OC=32 stride=1 pad=1 kernel=3
[DECODE pc=45] DMA_LD dram=0x0100f970 sram=0x003c0000 size=0x00002480
[DMA 18][pc=45] DMA_LD DRAM_WEIGHT->SRAM dram=0x0100f970 sram=0x003c0000 size=0x00002480
[DECODE pc=46] CONFIG in_h=80 in_w=80 in_c=32 out_c=32 stride=1 pcfg=0x04f shift=0x09
[DECODE pc=47] CONV in=0x00096000 wgt=0x003c0000 out=0x000c8000 flags=0x00b stride=1 pad=1 kernel=3 uses_cfg(H=80 W=80 IC=32 OC=32 pcfg=0x04f shift=0x09 add_lhs=0x00 add_rhs=0x00)
[EXEC 14][pc=47] CONV out=0x000c8000 H=80 W=80 OC=32 stride=1 pad=1 kernel=3
[DECODE pc=48] ADDCFG lhs_shift=0x01 rhs_shift=0x00
[DECODE pc=49] CONFIG in_h=80 in_w=80 in_c=32 out_c=32 stride=1 pcfg=0x000 shift=0x00
[DECODE pc=50] ADD in=0x00064000 wgt=0x000c8000 out=0x00096000 flags=0x000 stride=1 pad=0 kernel=1 uses_cfg(H=80 W=80 IC=32 OC=32 pcfg=0x000 shift=0x00 add_lhs=0x01 add_rhs=0x00)
[EXEC 15][pc=50] ADD out=0x00096000 H=80 W=80 OC=32 stride=1 pad=0 kernel=1
[DECODE pc=51] DMA_ST dram=0x0032c000 sram=0x00000000 size=0x00064000
[DMA 19][pc=51] DMA_ST SRAM->DRAM dram=0x0032c000 sram=0x00000000 size=0x00064000
[DECODE pc=52] DMA_ST dram=0x00390000 sram=0x00064000 size=0x00032000
[DMA 20][pc=52] DMA_ST SRAM->DRAM dram=0x00390000 sram=0x00064000 size=0x00032000
[DECODE pc=53] DMA_ST dram=0x003c2000 sram=0x00096000 size=0x00032000
[DMA 21][pc=53] DMA_ST SRAM->DRAM dram=0x003c2000 sram=0x00096000 size=0x00032000
[DECODE pc=54] DMA_LD dram=0x0032c000 sram=0x000c8000 size=0x00032000
[DMA 22][pc=54] DMA_LD DRAM_STAGE->SRAM dram=0x0032c000 sram=0x000c8000 size=0x00032000
[DECODE pc=55] DMA_LD dram=0x0035e000 sram=0x000fa000 size=0x00032000
[DMA 23][pc=55] DMA_LD DRAM_STAGE->SRAM dram=0x0035e000 sram=0x000fa000 size=0x00032000
[DECODE pc=56] DMA_LD dram=0x00390000 sram=0x0012c000 size=0x00032000
[DMA 24][pc=56] DMA_LD DRAM_STAGE->SRAM dram=0x00390000 sram=0x0012c000 size=0x00032000
[DECODE pc=57] DMA_LD dram=0x003c2000 sram=0x0015e000 size=0x00032000
[DMA 25][pc=57] DMA_LD DRAM_STAGE->SRAM dram=0x003c2000 sram=0x0015e000 size=0x00032000
[DECODE pc=58] DMA_LD dram=0x01011df0 sram=0x00380000 size=0x00002100
[DMA 26][pc=58] DMA_LD DRAM_WEIGHT->SRAM dram=0x01011df0 sram=0x00380000 size=0x00002100
[DECODE pc=59] CONFIG in_h=80 in_w=80 in_c=128 out_c=64 stride=1 pcfg=0x04f shift=0x08
[DECODE pc=60] CONV in=0x000c8000 wgt=0x00380000 out=0x00000000 flags=0x00b stride=1 pad=0 kernel=1 uses_cfg(H=80 W=80 IC=128 OC=64 pcfg=0x04f shift=0x08 add_lhs=0x01 add_rhs=0x00)
[EXEC 16][pc=60] CONV out=0x00000000 H=80 W=80 OC=64 stride=1 pad=0 kernel=1
[DECODE pc=61] DMA_LD dram=0x01013ef0 sram=0x003c0000 size=0x00012200
[DMA 27][pc=61] DMA_LD DRAM_WEIGHT->SRAM dram=0x01013ef0 sram=0x003c0000 size=0x00012200
[DECODE pc=62] CONFIG in_h=80 in_w=80 in_c=64 out_c=128 stride=2 pcfg=0x04f shift=0x0a
[DECODE pc=63] CONV in=0x00000000 wgt=0x003c0000 out=0x00064000 flags=0x00b stride=2 pad=1 kernel=3 uses_cfg(H=80 W=80 IC=64 OC=128 pcfg=0x04f shift=0x0a add_lhs=0x01 add_rhs=0x00)
[EXEC 17][pc=63] CONV out=0x00064000 H=80 W=80 OC=128 stride=2 pad=1 kernel=3
[DECODE pc=64] DMA_ST dram=0x003f4000 sram=0x00000000 size=0x00064000
[DMA 28][pc=64] DMA_ST SRAM->DRAM dram=0x003f4000 sram=0x00000000 size=0x00064000
[DECODE pc=65] DMA_LD dram=0x010260f0 sram=0x00380000 size=0x00004200
[DMA 29][pc=65] DMA_LD DRAM_WEIGHT->SRAM dram=0x010260f0 sram=0x00380000 size=0x00004200
[DECODE pc=66] CONFIG in_h=40 in_w=40 in_c=128 out_c=128 stride=1 pcfg=0x04f shift=0x08
[DECODE pc=67] CONV in=0x00064000 wgt=0x00380000 out=0x00000000 flags=0x00b stride=1 pad=0 kernel=1 uses_cfg(H=40 W=40 IC=128 OC=128 pcfg=0x04f shift=0x08 add_lhs=0x01 add_rhs=0x00)
[EXEC 18][pc=67] CONV out=0x00000000 H=40 W=40 OC=128 stride=1 pad=0 kernel=1
[DECODE pc=68] DMA_LD dram=0x0102a2f0 sram=0x003c0000 size=0x00009100
[DMA 30][pc=68] DMA_LD DRAM_WEIGHT->SRAM dram=0x0102a2f0 sram=0x003c0000 size=0x00009100
[DECODE pc=69] CONFIG in_h=40 in_w=40 in_c=64 out_c=64 stride=1 pcfg=0x04f shift=0x09
[DECODE pc=70] CONV in=0x00019000 wgt=0x003c0000 out=0x00032000 flags=0x00b stride=1 pad=1 kernel=3 uses_cfg(H=40 W=40 IC=64 OC=64 pcfg=0x04f shift=0x09 add_lhs=0x01 add_rhs=0x00)
[EXEC 19][pc=70] CONV out=0x00032000 H=40 W=40 OC=64 stride=1 pad=1 kernel=3
[DECODE pc=71] DMA_LD dram=0x010333f0 sram=0x00380000 size=0x00009100
[DMA 31][pc=71] DMA_LD DRAM_WEIGHT->SRAM dram=0x010333f0 sram=0x00380000 size=0x00009100
[DECODE pc=72] CONFIG in_h=40 in_w=40 in_c=64 out_c=64 stride=1 pcfg=0x04f shift=0x0a
[DECODE pc=73] CONV in=0x00032000 wgt=0x00380000 out=0x0004b000 flags=0x00b stride=1 pad=1 kernel=3 uses_cfg(H=40 W=40 IC=64 OC=64 pcfg=0x04f shift=0x0a add_lhs=0x01 add_rhs=0x00)
[EXEC 20][pc=73] CONV out=0x0004b000 H=40 W=40 OC=64 stride=1 pad=1 kernel=3
[DECODE pc=74] ADDCFG lhs_shift=0x00 rhs_shift=0x00
[DECODE pc=75] CONFIG in_h=40 in_w=40 in_c=64 out_c=64 stride=1 pcfg=0x000 shift=0x00
[DECODE pc=76] ADD in=0x00019000 wgt=0x0004b000 out=0x00032000 flags=0x000 stride=1 pad=0 kernel=1 uses_cfg(H=40 W=40 IC=64 OC=64 pcfg=0x000 shift=0x00 add_lhs=0x00 add_rhs=0x00)
[EXEC 21][pc=76] ADD out=0x00032000 H=40 W=40 OC=64 stride=1 pad=0 kernel=1
[DECODE pc=77] DMA_LD dram=0x0103c4f0 sram=0x003c0000 size=0x00009100
[DMA 32][pc=77] DMA_LD DRAM_WEIGHT->SRAM dram=0x0103c4f0 sram=0x003c0000 size=0x00009100
[DECODE pc=78] CONFIG in_h=40 in_w=40 in_c=64 out_c=64 stride=1 pcfg=0x04f shift=0x09
[DECODE pc=79] CONV in=0x00032000 wgt=0x003c0000 out=0x0004b000 flags=0x00b stride=1 pad=1 kernel=3 uses_cfg(H=40 W=40 IC=64 OC=64 pcfg=0x04f shift=0x09 add_lhs=0x00 add_rhs=0x00)
[EXEC 22][pc=79] CONV out=0x0004b000 H=40 W=40 OC=64 stride=1 pad=1 kernel=3
[DECODE pc=80] DMA_LD dram=0x010455f0 sram=0x00380000 size=0x00009100
[DMA 33][pc=80] DMA_LD DRAM_WEIGHT->SRAM dram=0x010455f0 sram=0x00380000 size=0x00009100
[DECODE pc=81] CONFIG in_h=40 in_w=40 in_c=64 out_c=64 stride=1 pcfg=0x04f shift=0x0a
[DECODE pc=82] CONV in=0x0004b000 wgt=0x00380000 out=0x00064000 flags=0x00b stride=1 pad=1 kernel=3 uses_cfg(H=40 W=40 IC=64 OC=64 pcfg=0x04f shift=0x0a add_lhs=0x00 add_rhs=0x00)
[EXEC 23][pc=82] CONV out=0x00064000 H=40 W=40 OC=64 stride=1 pad=1 kernel=3
[DECODE pc=83] ADDCFG lhs_shift=0x01 rhs_shift=0x00
[DECODE pc=84] CONFIG in_h=40 in_w=40 in_c=64 out_c=64 stride=1 pcfg=0x000 shift=0x00
[DECODE pc=85] ADD in=0x00032000 wgt=0x00064000 out=0x0004b000 flags=0x000 stride=1 pad=0 kernel=1 uses_cfg(H=40 W=40 IC=64 OC=64 pcfg=0x000 shift=0x00 add_lhs=0x01 add_rhs=0x00)
[EXEC 24][pc=85] ADD out=0x0004b000 H=40 W=40 OC=64 stride=1 pad=0 kernel=1
[DECODE pc=86] DMA_ST dram=0x00458000 sram=0x00000000 size=0x00032000
[DMA 34][pc=86] DMA_ST SRAM->DRAM dram=0x00458000 sram=0x00000000 size=0x00032000
[DECODE pc=87] DMA_ST dram=0x0048a000 sram=0x00032000 size=0x00019000
[DMA 35][pc=87] DMA_ST SRAM->DRAM dram=0x0048a000 sram=0x00032000 size=0x00019000
[DECODE pc=88] DMA_ST dram=0x004a3000 sram=0x0004b000 size=0x00019000
[DMA 36][pc=88] DMA_ST SRAM->DRAM dram=0x004a3000 sram=0x0004b000 size=0x00019000
[DECODE pc=89] DMA_LD dram=0x00458000 sram=0x00064000 size=0x00019000
[DMA 37][pc=89] DMA_LD DRAM_STAGE->SRAM dram=0x00458000 sram=0x00064000 size=0x00019000
[DECODE pc=90] DMA_LD dram=0x00471000 sram=0x0007d000 size=0x00019000
[DMA 38][pc=90] DMA_LD DRAM_STAGE->SRAM dram=0x00471000 sram=0x0007d000 size=0x00019000
[DECODE pc=91] DMA_LD dram=0x0048a000 sram=0x00096000 size=0x00019000
[DMA 39][pc=91] DMA_LD DRAM_STAGE->SRAM dram=0x0048a000 sram=0x00096000 size=0x00019000
[DECODE pc=92] DMA_LD dram=0x004a3000 sram=0x000af000 size=0x00019000
[DMA 40][pc=92] DMA_LD DRAM_STAGE->SRAM dram=0x004a3000 sram=0x000af000 size=0x00019000
[DECODE pc=93] DMA_LD dram=0x0104e6f0 sram=0x003c0000 size=0x00008200
[DMA 41][pc=93] DMA_LD DRAM_WEIGHT->SRAM dram=0x0104e6f0 sram=0x003c0000 size=0x00008200
[DECODE pc=94] CONFIG in_h=40 in_w=40 in_c=256 out_c=128 stride=1 pcfg=0x04f shift=0x09
[DECODE pc=95] CONV in=0x00064000 wgt=0x003c0000 out=0x00000000 flags=0x00b stride=1 pad=0 kernel=1 uses_cfg(H=40 W=40 IC=256 OC=128 pcfg=0x04f shift=0x09 add_lhs=0x01 add_rhs=0x00)
[EXEC 25][pc=95] CONV out=0x00000000 H=40 W=40 OC=128 stride=1 pad=0 kernel=1
[DECODE pc=96] DMA_LD dram=0x010568f0 sram=0x00380000 size=0x00048400
[DMA 42][pc=96] DMA_LD DRAM_WEIGHT->SRAM dram=0x010568f0 sram=0x00380000 size=0x00048400
[DECODE pc=97] CONFIG in_h=40 in_w=40 in_c=128 out_c=256 stride=2 pcfg=0x04f shift=0x0a
[DECODE pc=98] CONV in=0x00000000 wgt=0x00380000 out=0x00032000 flags=0x00b stride=2 pad=1 kernel=3 uses_cfg(H=40 W=40 IC=128 OC=256 pcfg=0x04f shift=0x0a add_lhs=0x01 add_rhs=0x00)
[EXEC 26][pc=98] CONV out=0x00032000 H=40 W=40 OC=256 stride=2 pad=1 kernel=3
[DECODE pc=99] DMA_ST dram=0x004bc000 sram=0x00000000 size=0x00032000
[DMA 43][pc=99] DMA_ST SRAM->DRAM dram=0x004bc000 sram=0x00000000 size=0x00032000
[DECODE pc=100] DMA_LD dram=0x0109ecf0 sram=0x003c0000 size=0x00010400
[DMA 44][pc=100] DMA_LD DRAM_WEIGHT->SRAM dram=0x0109ecf0 sram=0x003c0000 size=0x00010400
[DECODE pc=101] CONFIG in_h=20 in_w=20 in_c=256 out_c=256 stride=1 pcfg=0x04f shift=0x0a
[DECODE pc=102] CONV in=0x00032000 wgt=0x003c0000 out=0x00000000 flags=0x00b stride=1 pad=0 kernel=1 uses_cfg(H=20 W=20 IC=256 OC=256 pcfg=0x04f shift=0x0a add_lhs=0x01 add_rhs=0x00)
[EXEC 27][pc=102] CONV out=0x00000000 H=20 W=20 OC=256 stride=1 pad=0 kernel=1
[DECODE pc=103] DMA_LD dram=0x010af0f0 sram=0x00380000 size=0x00024200
[DMA 45][pc=103] DMA_LD DRAM_WEIGHT->SRAM dram=0x010af0f0 sram=0x00380000 size=0x00024200
[DECODE pc=104] CONFIG in_h=20 in_w=20 in_c=128 out_c=128 stride=1 pcfg=0x04f shift=0x0a
[DECODE pc=105] CONV in=0x0000c800 wgt=0x00380000 out=0x00019000 flags=0x00b stride=1 pad=1 kernel=3 uses_cfg(H=20 W=20 IC=128 OC=128 pcfg=0x04f shift=0x0a add_lhs=0x01 add_rhs=0x00)
[EXEC 28][pc=105] CONV out=0x00019000 H=20 W=20 OC=128 stride=1 pad=1 kernel=3
[DECODE pc=106] DMA_LD dram=0x010d32f0 sram=0x003c0000 size=0x00024200
