Hardware/NPU/TestBench/gate_d_first_add_vcs.log
-- using Gate D first residual ADD program --
cp ../../../Build/npu_program_gate_d_first_add.hex npu_program.hex
==== NPU_gate_d_tb first residual ADD via VCS ====
vcs -sverilog -full64 -timescale=1ns/1ps +define+NO_FSDB +incdir+.. +incdir+../Control +incdir+../Buffer +incdir+../Compute +incdir+../Memory +incdir+../PE_Array +incdir+../PE_Array/GIN +incdir+../PE_Array/GON +incdir+../PPU \
       ../NPU_ctrl_top.sv ../Control/Decoder.sv ../Control/DMA_ctrl.sv ../Compute/QuantizeUnit.sv ../Compute/ActivationUnit.sv ../Compute/AddUnit.sv ../Compute/PoolCompareUnit.sv ../Compute/ConvMacUnit.sv ../Compute/ConvAddrGen.sv ../Compute/PoolAddrGen.sv ../Compute/AddAddrGen.sv ../Compute/ComputeTop.sv ../Memory/SRAM.sv ../Memory/ICache.sv NPU_gate_d_tb.sv \
       -top NPU_gate_d_tb -o simv_gate_d_first_add
*** Using c compiler gcc instead of cc ...
                         Chronologic VCS (TM)
         Version V-2023.12_Full64 -- Mon Jun  1 12:31:40 2026

                    Copyright (c) 1991 - 2023 Synopsys, Inc.
   This software and the associated documentation are proprietary to Synopsys,
 Inc. This software may only be used in accordance with the terms and conditions
 of a written license agreement with Synopsys, Inc. All other use, reproduction,
   or distribution of this software is strictly prohibited.  Licensed Products
     communicate with Synopsys servers for the purpose of providing software
    updates, detecting software piracy and verifying that customers are using
    Licensed Products in conformity with the applicable License Key for such
  Licensed Products. Synopsys will use information gathered in connection with
    this process to deliver software updates and pursue software pirates and
                                   infringers.

 Inclusivity & Diversity - Visit SolvNetPlus to read the "Synopsys Statement on
            Inclusivity and Diversity" (Refer to article 000036315 at
                        https://solvnetplus.synopsys.com)

Parsing design file '../NPU_ctrl_top.sv'
Parsing included file '../define.svh'.
Back to file '../NPU_ctrl_top.sv'.
Parsing design file '../Control/Decoder.sv'
Parsing included file '../define.svh'.
Back to file '../Control/Decoder.sv'.
Parsing design file '../Control/DMA_ctrl.sv'
Parsing included file '../define.svh'.
Back to file '../Control/DMA_ctrl.sv'.
Parsing design file '../Compute/QuantizeUnit.sv'
Parsing included file '../define.svh'.
Back to file '../Compute/QuantizeUnit.sv'.
Parsing design file '../Compute/ActivationUnit.sv'
Parsing included file '../define.svh'.
Back to file '../Compute/ActivationUnit.sv'.
Parsing design file '../Compute/AddUnit.sv'
Parsing included file '../define.svh'.
Back to file '../Compute/AddUnit.sv'.
Parsing design file '../Compute/PoolCompareUnit.sv'
Parsing included file '../define.svh'.
Back to file '../Compute/PoolCompareUnit.sv'.
Parsing design file '../Compute/ConvMacUnit.sv'
Parsing included file '../define.svh'.
Back to file '../Compute/ConvMacUnit.sv'.
Parsing design file '../Compute/ConvAddrGen.sv'
Parsing included file '../define.svh'.
Back to file '../Compute/ConvAddrGen.sv'.
Parsing design file '../Compute/PoolAddrGen.sv'
Parsing included file '../define.svh'.
Back to file '../Compute/PoolAddrGen.sv'.
Parsing design file '../Compute/AddAddrGen.sv'
Parsing included file '../define.svh'.
Back to file '../Compute/AddAddrGen.sv'.
Parsing design file '../Compute/ComputeTop.sv'
Parsing included file '../define.svh'.
Back to file '../Compute/ComputeTop.sv'.
Parsing design file '../Memory/SRAM.sv'
Parsing included file '../define.svh'.
Back to file '../Memory/SRAM.sv'.
Parsing design file '../Memory/ICache.sv'
Parsing included file '../define.svh'.
Back to file '../Memory/ICache.sv'.
Parsing design file 'NPU_gate_d_tb.sv'
Parsing included file '../define.svh'.
Back to file 'NPU_gate_d_tb.sv'.
Top Level Modules:
       NPU_gate_d_tb
TimeScale is 1 ns / 1 ps
Starting vcs inline pass...

2 modules and 0 UDP read.
recompiling module QuantizeUnit
recompiling module NPU_gate_d_tb
Both modules done.
make[1]: Entering directory '/home/users/xxSehun/AOC/YOLOv8n-Accelerator/Hardware/NPU/TestBench/csrc'
rm -f _cuarc*.so _csrc*.so pre_vcsobj_*.so share_vcsobj_*.so
if [ -x ../simv_gate_d_first_add ]; then chmod a-x ../simv_gate_d_first_add; fi
g++  -o ../simv_gate_d_first_add      -rdynamic  -Wl,-rpath='$ORIGIN'/simv_gate_d_first_add.daidir -Wl,-rpath=./simv_gate_d_first_add.daidir -Wl,-rpath=/usr/cad/synopsys/vcs/2023.12/linux64/lib -L/usr/cad/synopsys/vcs/2023.12/linux64/lib  -Wl,-rpath-link=./  /usr/lib64/libnuma.so.1   objs/amcQw_d.o   _3142990_archive_1.so   SIM_l.o      rmapats_mop.o rmapats.o rmar.o rmar_nd.o  rmar_llvm_0_1.o rmar_llvm_0_0.o            -lvirsim -lerrorinf -lsnpsmalloc -lvfs    -lvcsnew -lsimprofile -luclinative /usr/cad/synopsys/vcs/2023.12/linux64/lib/vcs_tls.o   -Wl,-whole-archive  -lvcsucli    -Wl,-no-whole-archive        _vcs_pli_stub_.o   /usr/cad/synopsys/vcs/2023.12/linux64/lib/vcs_save_restore_new.o -ldl  -lc -lm -lpthread -ldl 
../simv_gate_d_first_add up to date
make[1]: Leaving directory '/home/users/xxSehun/AOC/YOLOv8n-Accelerator/Hardware/NPU/TestBench/csrc'
CPU time: .357 seconds to compile + .150 seconds to elab + .169 seconds to link
./simv_gate_d_first_add
Info: [VCS_SAVE_RESTORE_INFO] ASLR (Address Space Layout Randomization) is detected on the machine. To enable $save functionality, ASLR will be switched off and simv re-executed.
Please use '-no_save' simv switch to avoid re-execution or '-suppress=ASLR_DETECTED_INFO' to suppress this message.
Chronologic VCS simulator copyright 1991-2023
Contains Synopsys proprietary information.
Compiler version V-2023.12_Full64; Runtime version V-2023.12_Full64;  Jun  1 12:31 2026
[TB] loaded 1228800 input bytes from ../../../Build/input_seed0.bin
[TB] loaded 1277680 weight bytes
[TB] loaded 409600 golden bytes from ../../../Build/golden_first_add.bin
== NPU_gate_d_tb: Gate D first residual ADD ==
Requires npu_program.hex in this simulation cwd.
[TB] start pulsed at 105000
[DECODE pc=0] DMA_LD dram=0x00000000 sram=0x00000000 size=0x0012c000
[DMA pc=0] DMA_LD dram=0x00000000 sram=0x00000000 size=0x0012c000
[DECODE pc=1] DMA_LD dram=0x01000000 sram=0x00380000 size=0x000001f0
[DMA pc=1] DMA_LD dram=0x01000000 sram=0x00380000 size=0x000001f0
[DECODE pc=2] CONFIG H=640 W=640 IC=3 OC=16 stride=2 shift=0x0a
[DECODE pc=3] CONV in=0x00000000 wgt=0x00380000 out=0x0012c000 stride=2 pad=1 kernel=3
[EXEC_ACCEPT 1][pc=3] CONV H=640 W=640 IC=3 OC=16 out=0x0012c000
[COMPUTE_WRITE pc=3] CONV byte_offset=0x0003ffff total=0x00190000
[COMPUTE_WRITE pc=3] CONV byte_offset=0x0007ffff total=0x00190000
[COMPUTE_WRITE pc=3] CONV byte_offset=0x000bffff total=0x00190000
[COMPUTE_WRITE pc=3] CONV byte_offset=0x000fffff total=0x00190000
[COMPUTE_WRITE pc=3] CONV byte_offset=0x0013ffff total=0x00190000
[COMPUTE_WRITE pc=3] CONV byte_offset=0x0017ffff total=0x00190000
[COMPUTE_WRITE pc=3] CONV byte_offset=0x0018ffff total=0x00190000
[DECODE pc=4] DMA_LD dram=0x010001f0 sram=0x003c0000 size=0x00001280
[DMA pc=4] DMA_LD dram=0x010001f0 sram=0x003c0000 size=0x00001280
[DECODE pc=5] CONFIG H=320 W=320 IC=16 OC=32 stride=2 shift=0x09
[DECODE pc=6] CONV in=0x0012c000 wgt=0x003c0000 out=0x00000000 stride=2 pad=1 kernel=3
[EXEC_ACCEPT 2][pc=6] CONV H=320 W=320 IC=16 OC=32 out=0x00000000
[COMPUTE_WRITE pc=6] CONV byte_offset=0x0003ffff total=0x000c8000
[COMPUTE_WRITE pc=6] CONV byte_offset=0x0007ffff total=0x000c8000
[COMPUTE_WRITE pc=6] CONV byte_offset=0x000bffff total=0x000c8000
[COMPUTE_WRITE pc=6] CONV byte_offset=0x000c7fff total=0x000c8000
[DECODE pc=7] DMA_LD dram=0x01001470 sram=0x00380000 size=0x00000480
[DMA pc=7] DMA_LD dram=0x01001470 sram=0x00380000 size=0x00000480
[DECODE pc=8] CONFIG H=160 W=160 IC=32 OC=32 stride=1 shift=0x07
[DECODE pc=9] CONV in=0x00000000 wgt=0x00380000 out=0x000c8000 stride=1 pad=0 kernel=1
[EXEC_ACCEPT 3][pc=9] CONV H=160 W=160 IC=32 OC=32 out=0x000c8000
[COMPUTE_WRITE pc=9] CONV byte_offset=0x0003ffff total=0x000c8000
[COMPUTE_WRITE pc=9] CONV byte_offset=0x0007ffff total=0x000c8000
[COMPUTE_WRITE pc=9] CONV byte_offset=0x000bffff total=0x000c8000
[COMPUTE_WRITE pc=9] CONV byte_offset=0x000c7fff total=0x000c8000
[DECODE pc=10] DMA_LD dram=0x010018f0 sram=0x003c0000 size=0x00000940
[DMA pc=10] DMA_LD dram=0x010018f0 sram=0x003c0000 size=0x00000940
[DECODE pc=11] CONFIG H=160 W=160 IC=16 OC=16 stride=1 shift=0x08
[DECODE pc=12] CONV in=0x0012c000 wgt=0x003c0000 out=0x00000000 stride=1 pad=1 kernel=3
[EXEC_ACCEPT 4][pc=12] CONV H=160 W=160 IC=16 OC=16 out=0x00000000
[COMPUTE_WRITE pc=12] CONV byte_offset=0x0003ffff total=0x00064000
[COMPUTE_WRITE pc=12] CONV byte_offset=0x00063fff total=0x00064000
[DECODE pc=13] DMA_LD dram=0x01002230 sram=0x00380000 size=0x00000940
[DMA pc=13] DMA_LD dram=0x01002230 sram=0x00380000 size=0x00000940
[DECODE pc=14] CONFIG H=160 W=160 IC=16 OC=16 stride=1 shift=0x09
[DECODE pc=15] CONV in=0x00000000 wgt=0x00380000 out=0x00064000 stride=1 pad=1 kernel=3
[EXEC_ACCEPT 5][pc=15] CONV H=160 W=160 IC=16 OC=16 out=0x00064000
[COMPUTE_WRITE pc=15] CONV byte_offset=0x0003ffff total=0x00064000
[COMPUTE_WRITE pc=15] CONV byte_offset=0x00063fff total=0x00064000
[DECODE pc=16] ADDCFG lhs=0x01 rhs=0x00
[DECODE pc=17] CONFIG H=160 W=160 IC=16 OC=16 stride=1 shift=0x00
[DECODE pc=18] ADD in=0x0012c000 wgt=0x00064000 out=0x00000000 stride=1 pad=0 kernel=1
[EXEC_ACCEPT 6][pc=18] ADD H=160 W=160 IC=16 OC=16 out=0x00000000
[COMPUTE_WRITE pc=18] ADD byte_offset=0x0003ffff total=0x00064000
[COMPUTE_WRITE pc=18] ADD byte_offset=0x00063fff total=0x00064000
[DECODE pc=19] HALT
[TB] HALT observed at 3212344345000
== Gate D checkpoints ==
  PASS: HALT reached
  PASS: PC parked at expected HALT
  PASS: decoded every instruction including HALT
  PASS: EXEC count matches target program
  PASS: CONV count matches target program
  PASS: POOL count matches target program
  PASS: ADD count matches target program
  PASS: DMA_LD count matches target program
  PASS: DMA_ST count matches target program
  PASS: weight DMA_LD count matches target program
  PASS: no overloaded SRAM-copy DMA_LD was used
  PASS: input DMA_LD was observed
  PASS: Gate D first residual ADD output byte-for-byte matches ../../../Build/golden_first_add.bin
== NPU_gate_d_tb PASS: Gate D first residual ADD ==
$finish called from file "NPU_gate_d_tb.sv", line 405.
$finish at simulation time        3212344345000
           V C S   S i m u l a t i o n   R e p o r t 
Time: 3212344345000 ps
CPU Time:    180.940 seconds;       Data structure size:   9.6Mb
Mon Jun  1 12:34:42 2026
