Hardware/NPU/TestBench/gate_f_spatial_vcs.log
Chronologic VCS simulator copyright 1991-2023
Contains Synopsys proprietary information.
Compiler version V-2023.12_Full64; Runtime version V-2023.12_Full64;  Jun  2 17:18 2026
[TB] loaded input bytes=1228800
[TB] loaded weight bytes=1277680
[TB] loaded golden bytes=1638400
== Gate F TRUE systolic full first-CONV check ==
[HB][55000] cyc=0 pc=0 ppc_st=0 tile_base=0 tile_w=1 tile_start=0 ifcnt=0 oy=0 opsum=0 halted=0
[TB] start pulsed at 105000
[HB][1000055000] cyc=100000 pc=0 ppc_st=0 tile_base=0 tile_w=1 tile_start=0 ifcnt=0 oy=0 opsum=0 halted=0
[HB][2000055000] cyc=200000 pc=0 ppc_st=0 tile_base=0 tile_w=1 tile_start=0 ifcnt=0 oy=0 opsum=0 halted=0
[HB][3000055000] cyc=300000 pc=0 ppc_st=0 tile_base=0 tile_w=1 tile_start=0 ifcnt=0 oy=0 opsum=0 halted=0
[HB][4000055000] cyc=400000 pc=0 ppc_st=0 tile_base=0 tile_w=1 tile_start=0 ifcnt=0 oy=0 opsum=0 halted=0
[HB][5000055000] cyc=500000 pc=0 ppc_st=0 tile_base=0 tile_w=1 tile_start=0 ifcnt=0 oy=0 opsum=0 halted=0
[HB][6000055000] cyc=600000 pc=0 ppc_st=0 tile_base=0 tile_w=1 tile_start=0 ifcnt=0 oy=0 opsum=0 halted=0
[MON][FILTER][6149225000] n=0 tagX=0 data=0x00fefd02
[MON][FILTER][6149235000] n=1 tagX=0 data=0x00040505
[MON][FILTER][6149245000] n=2 tagX=0 data=0x00f8faf9
[MON][FILTER][6149255000] n=3 tagX=1 data=0x00f3f5f6
[MON][FILTER][6149265000] n=4 tagX=1 data=0x000d0f0e
[MON][LB_IN][6149265000] n=0 data=0x8005f55f
[MON][FILTER][6149275000] n=5 tagX=1 data=0x00040403
[MON][FILTER][6149285000] n=6 tagX=2 data=0x00fcfefd
[MON][FILTER][6149295000] n=7 tagX=2 data=0x00020505
[MON][FILTER][6149305000] n=8 tagX=2 data=0x0008090c
[MON][FILTER][6149315000] n=9 tagX=0 data=0x00fe00fe
[MON][LB_IN][6149315000] n=1 data=0x80f42082
[MON][FILTER][6149325000] n=10 tagX=0 data=0x00dcddda
[MON][FILTER][6149335000] n=11 tagX=0 data=0x00e9e9e5
[MON][LB_IN][6149365000] n=2 data=0x8016dcc2
[MON][LB_IN][6149415000] n=3 data=0x807404d9
[MON][LB_IN][6149465000] n=4 data=0x805848cf
[MON][LB_IN][6149515000] n=5 data=0x80ad79eb
[MON][LB_IN][6149565000] n=6 data=0x8025120f
[MON][LB_IN][6149615000] n=7 data=0x809b52a3
[MON][LB_IN][6149665000] n=8 data=0x80601521
[MON][LB_IN][6149715000] n=9 data=0x805b14d7
[MON][LB_IN][6149765000] n=10 data=0x800f7cd9
[MON][LB_IN][6149815000] n=11 data=0x80516a82
[MON][OPSUM][6217225000] n=0 ow=0 oc=0 data=360
[MON][OPSUM][6217235000] n=1 ow=0 oc=1 data=4171
[MON][OPSUM][6217245000] n=2 ow=0 oc=2 data=-3764
[MON][OPSUM][6217255000] n=3 ow=0 oc=3 data=9896
[MON][OPSUM][6217265000] n=4 ow=0 oc=4 data=690
[MON][OPSUM][6217275000] n=5 ow=0 oc=5 data=-12062
[MON][OPSUM][6217285000] n=6 ow=0 oc=6 data=-4157
[MON][ACT][6217285000] n=0 data=0x88808480
[MON][OPSUM][6217295000] n=7 ow=0 oc=7 data=160
[MON][OPSUM][6217305000] n=8 ow=0 oc=8 data=1283
[MON][OPSUM][6217315000] n=9 ow=0 oc=9 data=-1894
[MON][OPSUM][6217325000] n=10 ow=0 oc=10 data=-1277
[MON][OPSUM][6217335000] n=11 ow=0 oc=11 data=8484
[MON][ACT][6217335000] n=1 data=0x80808082
[MON][OPSUM][6217345000] n=12 ow=0 oc=12 data=492
[MON][OPSUM][6217355000] n=13 ow=0 oc=13 data=1193
[MON][OPSUM][6217365000] n=14 ow=0 oc=14 data=-7953
[MON][OPSUM][6217375000] n=15 ow=0 oc=15 data=2081
[MON][ACT][6217385000] n=2 data=0x89808081
[MON][ACT][6217435000] n=3 data=0x83808081
[MON][ACT][6217485000] n=4 data=0x80819080
[MON][ACT][6217535000] n=5 data=0x80808480
[MON][ACT][6217585000] n=6 data=0x8080868b
[MON][ACT][6217635000] n=7 data=0x85808081
[MON][ACT][6217685000] n=8 data=0x86858080
[MON][ACT][6217735000] n=9 data=0x88898081
[MON][ACT][6217785000] n=10 data=0x80808081
[MON][ACT][6217835000] n=11 data=0x80908081
[MON][ACT][6217885000] n=12 data=0x95878f80
[MON][ACT][6217935000] n=13 data=0x80808082
[MON][ACT][6217985000] n=14 data=0x80808084
[MON][ACT][6218035000] n=15 data=0x8c878382
[DBG][TARGET_WIN][6413185000] n=2997 tagX=13 data=0x80774f7f
[DBG][TARGET_WIN][6413195000] n=2998 tagX=13 data=0x803c6ef1
[DBG][TARGET_WIN][6413205000] n=2999 tagX=13 data=0x801ed63a
[DBG][TARGET_WIN][6413215000] n=3000 tagX=13 data=0x807c3038
[DBG][TARGET_WIN][6413225000] n=3001 tagX=13 data=0x801cdbd5
[DBG][TARGET_WIN][6413235000] n=3002 tagX=13 data=0x8040007d
[DBG][TARGET_WIN][6413245000] n=3003 tagX=13 data=0x804c687b
[DBG][TARGET_WIN][6413255000] n=3004 tagX=13 data=0x80968ec2
[DBG][TARGET_WIN][6413265000] n=3005 tagX=13 data=0x802db8a5
[DBG][TARGET_OPSUM][6418395000] n=5324 pixel=332 row=1 ow=12 oc=12 data=1144
[DBG][TARGET_OPSUM][6418405000] n=5325 pixel=332 row=1 ow=12 oc=13 data=10522
[DBG][TARGET_OPSUM][6418415000] n=5326 pixel=332 row=1 ow=12 oc=14 data=-8997
[DBG][TARGET_OPSUM][6418425000] n=5327 pixel=332 row=1 ow=12 oc=15 data=14529
[DBG][TARGET_OPSUM][6418445000] n=5328 pixel=333 row=1 ow=13 oc=0 data=4253
[DBG][TARGET_OPSUM][6418455000] n=5329 pixel=333 row=1 ow=13 oc=1 data=9423
[DBG][TARGET_OPSUM][6418465000] n=5330 pixel=333 row=1 ow=13 oc=2 data=-6369
[DBG][TARGET_OPSUM][6418475000] n=5331 pixel=333 row=1 ow=13 oc=3 data=-36391
[DBG][TARGET_ACT][6418475000] n=1328 pixel=332 group=0 data=0x918d8d80 exp=0x918d8d80 ppu_in=-1796 ppu_out=0x80
[DBG][TARGET_OPSUM][6418495000] n=5332 pixel=333 row=1 ow=13 oc=4 data=-370
[DBG][TARGET_ACT][6418525000] n=1329 pixel=332 group=1 data=0x80818080 exp=0x80818080 ppu_in=32618 ppu_out=0x9f
[DBG][TARGET_ACT][6418575000] n=1330 pixel=332 group=2 data=0x8080839f exp=0x8080839f ppu_in=2690 ppu_out=0x82
[DBG][TARGET_ACT][6418625000] n=1331 pixel=332 group=3 data=0x90808982 exp=0x90808982 ppu_in=1095 ppu_out=0x81
[DBG][TARGET_ACT][6418675000] n=1332 pixel=333 group=0 data=0x80808981 exp=0x80808981 ppu_in=1476 ppu_out=0x81
[DBG][TARGET_ACT][6418725000] n=1333 pixel=333 group=1 data=0x80809881 exp=0x80809881 ppu_in=15206 ppu_out=0x8e
[DBG][TARGET_ACT][6418775000] n=1334 pixel=333 group=2 data=0x8080888e exp=0x8080888e ppu_in=328 ppu_out=0x80
[HB][7000055000] cyc=700000 pc=3 ppc_st=4 tile_base=0 tile_w=16 tile_start=0 ifcnt=0 oy=4 opsum=0 halted=0
[HB][8000055000] cyc=800000 pc=3 ppc_st=4 tile_base=0 tile_w=16 tile_start=0 ifcnt=0 oy=9 opsum=0 halted=0
[HB][9000055000] cyc=900000 pc=3 ppc_st=5 tile_base=0 tile_w=16 tile_start=0 ifcnt=0 oy=14 opsum=0 halted=0
[HB][10000055000] cyc=1000000 pc=3 ppc_st=5 tile_base=16 tile_w=16 tile_start=0 ifcnt=0 oy=19 opsum=0 halted=0
[HB][11000055000] cyc=1100000 pc=3 ppc_st=5 tile_base=32 tile_w=16 tile_start=0 ifcnt=0 oy=24 opsum=0 halted=0
[HB][12000055000] cyc=1200000 pc=3 ppc_st=4 tile_base=48 tile_w=16 tile_start=0 ifcnt=86 oy=29 opsum=0 halted=0
[HB][13000055000] cyc=1300000 pc=3 ppc_st=6 tile_base=48 tile_w=16 tile_start=0 ifcnt=0 oy=34 opsum=247 halted=0
[HB][14000055000] cyc=1400000 pc=3 ppc_st=6 tile_base=64 tile_w=16 tile_start=0 ifcnt=0 oy=39 opsum=169 halted=0
[HB][15000055000] cyc=1500000 pc=3 ppc_st=6 tile_base=80 tile_w=16 tile_start=0 ifcnt=0 oy=44 opsum=92 halted=0
[HB][16000055000] cyc=1600000 pc=3 ppc_st=6 tile_base=96 tile_w=16 tile_start=0 ifcnt=0 oy=49 opsum=0 halted=0
[HB][17000055000] cyc=1700000 pc=3 ppc_st=5 tile_base=112 tile_w=16 tile_start=0 ifcnt=0 oy=54 opsum=0 halted=0
[HB][18000055000] cyc=1800000 pc=3 ppc_st=5 tile_base=128 tile_w=16 tile_start=0 ifcnt=0 oy=59 opsum=0 halted=0
[HB][19000055000] cyc=1900000 pc=3 ppc_st=4 tile_base=144 tile_w=16 tile_start=0 ifcnt=109 oy=64 opsum=0 halted=0
[HB][20000055000] cyc=2000000 pc=3 ppc_st=4 tile_base=160 tile_w=16 tile_start=0 ifcnt=12 oy=69 opsum=0 halted=0
[HB][21000055000] cyc=2100000 pc=3 ppc_st=6 tile_base=160 tile_w=16 tile_start=0 ifcnt=0 oy=74 opsum=188 halted=0
[HB][22000055000] cyc=2200000 pc=3 ppc_st=6 tile_base=176 tile_w=16 tile_start=0 ifcnt=0 oy=79 opsum=110 halted=0
[HB][23000055000] cyc=2300000 pc=3 ppc_st=6 tile_base=192 tile_w=16 tile_start=0 ifcnt=0 oy=84 opsum=23 halted=0
[HB][24000055000] cyc=2400000 pc=3 ppc_st=5 tile_base=208 tile_w=16 tile_start=0 ifcnt=0 oy=89 opsum=0 halted=0
[HB][25000055000] cyc=2500000 pc=3 ppc_st=5 tile_base=224 tile_w=16 tile_start=0 ifcnt=0 oy=94 opsum=0 halted=0
[HB][26000055000] cyc=2600000 pc=3 ppc_st=4 tile_base=240 tile_w=16 tile_start=0 ifcnt=132 oy=99 opsum=0 halted=0
[HB][27000055000] cyc=2700000 pc=3 ppc_st=4 tile_base=256 tile_w=16 tile_start=0 ifcnt=35 oy=104 opsum=0 halted=0
[HB][28000055000] cyc=2800000 pc=3 ppc_st=6 tile_base=256 tile_w=16 tile_start=0 ifcnt=0 oy=109 opsum=206 halted=0
[HB][29000055000] cyc=2900000 pc=3 ppc_st=6 tile_base=272 tile_w=16 tile_start=0 ifcnt=0 oy=114 opsum=128 halted=0
[HB][30000055000] cyc=3000000 pc=3 ppc_st=6 tile_base=288 tile_w=16 tile_start=0 ifcnt=0 oy=119 opsum=46 halted=0
[HB][31000055000] cyc=3100000 pc=3 ppc_st=5 tile_base=304 tile_w=16 tile_start=0 ifcnt=0 oy=124 opsum=0 halted=0
[HB][32000055000] cyc=3200000 pc=3 ppc_st=4 tile_base=0 tile_w=16 tile_start=0 ifcnt=0 oy=130 opsum=0 halted=0
[HB][33000055000] cyc=3300000 pc=3 ppc_st=4 tile_base=0 tile_w=16 tile_start=0 ifcnt=0 oy=135 opsum=0 halted=0
[HB][34000055000] cyc=3400000 pc=3 ppc_st=4 tile_base=0 tile_w=16 tile_start=0 ifcnt=0 oy=140 opsum=0 halted=0
[HB][35000055000] cyc=3500000 pc=3 ppc_st=4 tile_base=0 tile_w=16 tile_start=0 ifcnt=0 oy=145 opsum=0 halted=0
[HB][36000055000] cyc=3600000 pc=3 ppc_st=4 tile_base=0 tile_w=16 tile_start=0 ifcnt=0 oy=150 opsum=0 halted=0
[HB][37000055000] cyc=3700000 pc=3 ppc_st=4 tile_base=0 tile_w=16 tile_start=0 ifcnt=0 oy=155 opsum=0 halted=0
[HB][38000055000] cyc=3800000 pc=3 ppc_st=4 tile_base=0 tile_w=16 tile_start=0 ifcnt=0 oy=160 opsum=0 halted=0
[HB][39000055000] cyc=3900000 pc=3 ppc_st=4 tile_base=0 tile_w=16 tile_start=0 ifcnt=0 oy=165 opsum=0 halted=0
[HB][40000055000] cyc=4000000 pc=3 ppc_st=4 tile_base=0 tile_w=16 tile_start=0 ifcnt=0 oy=170 opsum=0 halted=0
[HB][41000055000] cyc=4100000 pc=3 ppc_st=4 tile_base=0 tile_w=16 tile_start=0 ifcnt=0 oy=175 opsum=0 halted=0
[HB][42000055000] cyc=4200000 pc=3 ppc_st=6 tile_base=0 tile_w=16 tile_start=0 ifcnt=0 oy=180 opsum=63 halted=0
[HB][43000055000] cyc=4300000 pc=3 ppc_st=5 tile_base=16 tile_w=16 tile_start=0 ifcnt=0 oy=185 opsum=0 halted=0
[HB][44000055000] cyc=4400000 pc=3 ppc_st=5 tile_base=32 tile_w=16 tile_start=0 ifcnt=0 oy=190 opsum=0 halted=0
[HB][45000055000] cyc=4500000 pc=3 ppc_st=5 tile_base=48 tile_w=16 tile_start=0 ifcnt=0 oy=195 opsum=0 halted=0
[HB][46000055000] cyc=4600000 pc=3 ppc_st=4 tile_base=64 tile_w=16 tile_start=0 ifcnt=75 oy=200 opsum=0 halted=0
[HB][47000055000] cyc=4700000 pc=3 ppc_st=6 tile_base=64 tile_w=16 tile_start=0 ifcnt=0 oy=205 opsum=238 halted=0
[HB][48000055000] cyc=4800000 pc=3 ppc_st=6 tile_base=80 tile_w=16 tile_start=0 ifcnt=0 oy=210 opsum=160 halted=0
[HB][49000055000] cyc=4900000 pc=3 ppc_st=6 tile_base=96 tile_w=16 tile_start=0 ifcnt=0 oy=215 opsum=83 halted=0
[HB][50000055000] cyc=5000000 pc=3 ppc_st=5 tile_base=112 tile_w=16 tile_start=0 ifcnt=0 oy=220 opsum=0 halted=0
[HB][51000055000] cyc=5100000 pc=3 ppc_st=5 tile_base=128 tile_w=16 tile_start=0 ifcnt=0 oy=225 opsum=0 halted=0
[HB][52000055000] cyc=5200000 pc=3 ppc_st=5 tile_base=144 tile_w=16 tile_start=0 ifcnt=0 oy=230 opsum=0 halted=0
[HB][53000055000] cyc=5300000 pc=3 ppc_st=4 tile_base=160 tile_w=16 tile_start=0 ifcnt=98 oy=235 opsum=0 halted=0
[HB][54000055000] cyc=5400000 pc=3 ppc_st=4 tile_base=176 tile_w=16 tile_start=0 ifcnt=1 oy=240 opsum=0 halted=0
[HB][55000055000] cyc=5500000 pc=3 ppc_st=6 tile_base=176 tile_w=16 tile_start=0 ifcnt=0 oy=245 opsum=179 halted=0
[HB][56000055000] cyc=5600000 pc=3 ppc_st=6 tile_base=192 tile_w=16 tile_start=0 ifcnt=0 oy=250 opsum=101 halted=0
[HB][57000055000] cyc=5700000 pc=3 ppc_st=6 tile_base=208 tile_w=16 tile_start=0 ifcnt=0 oy=255 opsum=12 halted=0
[HB][58000055000] cyc=5800000 pc=3 ppc_st=5 tile_base=224 tile_w=16 tile_start=0 ifcnt=0 oy=260 opsum=0 halted=0
[HB][59000055000] cyc=5900000 pc=3 ppc_st=5 tile_base=240 tile_w=16 tile_start=0 ifcnt=0 oy=265 opsum=0 halted=0
[HB][60000055000] cyc=6000000 pc=3 ppc_st=4 tile_base=256 tile_w=16 tile_start=0 ifcnt=121 oy=270 opsum=0 halted=0
[HB][61000055000] cyc=6100000 pc=3 ppc_st=4 tile_base=272 tile_w=16 tile_start=0 ifcnt=24 oy=275 opsum=0 halted=0
[HB][62000055000] cyc=6200000 pc=3 ppc_st=6 tile_base=272 tile_w=16 tile_start=0 ifcnt=0 oy=280 opsum=197 halted=0
[HB][63000055000] cyc=6300000 pc=3 ppc_st=6 tile_base=288 tile_w=16 tile_start=0 ifcnt=0 oy=285 opsum=120 halted=0
[HB][64000055000] cyc=6400000 pc=3 ppc_st=6 tile_base=304 tile_w=16 tile_start=0 ifcnt=0 oy=290 opsum=35 halted=0
[HB][65000055000] cyc=6500000 pc=3 ppc_st=4 tile_base=0 tile_w=16 tile_start=0 ifcnt=0 oy=296 opsum=0 halted=0
[HB][66000055000] cyc=6600000 pc=3 ppc_st=4 tile_base=0 tile_w=16 tile_start=0 ifcnt=0 oy=301 opsum=0 halted=0
[HB][67000055000] cyc=6700000 pc=3 ppc_st=4 tile_base=0 tile_w=16 tile_start=0 ifcnt=0 oy=306 opsum=0 halted=0
[HB][68000055000] cyc=6800000 pc=3 ppc_st=4 tile_base=0 tile_w=16 tile_start=0 ifcnt=0 oy=311 opsum=0 halted=0
[HB][69000055000] cyc=6900000 pc=3 ppc_st=4 tile_base=0 tile_w=16 tile_start=0 ifcnt=0 oy=316 opsum=0 halted=0
[TB] HALT observed at 69767905000 cycle=6976786
[RESULT] mismatch_count=0 output_words=409600
== GATE F FULL FIRST-CONV TRUE SYSTOLIC PASS ==
$finish called from file "NPU_gate_f_first_conv_tb.sv", line 302.
$finish at simulation time          69768105000
           V C S   S i m u l a t i o n   R e p o r t 
Time: 69768105000 ps
CPU Time:   2336.370 seconds;       Data structure size:  13.1Mb
Tue Jun  2 17:57:52 2026
